…
You can also reply to a previous tweet, retweet and provide additional information.

## Get friends

Retrieve a list of all the accounts a **user follows**.

```r
## get user IDs of accounts followed by R Foundation
R_foundation_fds <- get_friends("_R_Foundation")
R_foundation_fds
#> # A tibble: 30 × 2
#>    from_id       to_id              
#>    <chr>         <chr>              
#>  1 _R_Foundation 1448728978370535426
#>  2 _R_Foundation 889777924991307778 
#>  3 _R_Foundation 1300656590         
#>  4 _R_Foundation 1280779280579022848
#>  5 _R_Foundation 1229418786085888001
#>  6 _R_Foundation 1197874989367779328
#>  7 _R_Foundation 1102763906714554368
#>  8 _R_Foundation 1560929287         
#>  9 _R_Foundation 46782674           
#> 10 _R_Foundation 16284661           
#> # … with 20 more rows
```
…
Note that the `retryonratelimit` option is intended for when you need more queries than provided by Twitter on a given period.
You might want to check with `rate_limit()` how many does it provide for the endpoints you are using.
If exceeded `retryonratelimit` waits till the there are more calls available and then resumes the query.

## Lookup users

As seen above we can use `lookup_users()` to check their


```r
# Look who is following R Foundation
R_foundation_fds_data <- lookup_users(R_foundation_fds$to_id, verbose = FALSE)
R_foundation_fds_data[, c("name", "screen_name", "created_at")]
#> # A tibble: 30 × 3
#>    name                                           screen_name     created_at         
#>    <chr>                                          <chr>           <dttm>             
#>  1 R Contributors                                 R_Contributors  2021-10-14 21:15:12
#>  2 Sebastian Meyer                                bastistician    2017-07-25 11:22:43
#>  3 Naras                                          b_naras         2013-03-25 19:48:12
#>  4 useR! 2022                                     _useRconf       2020-07-08 10:22:55
#>  5 useR2021zrh                                    useR2021zrh     2020-02-17 15:54:39
#>  6 useR2020muc                                    useR2020muc     2019-11-22 14:50:55
#>  7 useR! 2020                                     useR2020stl     2019-03-05 03:52:58
#>  8 Roger Bivand @rsbivand@fosstodon.org           RogerBivand     2013-07-01 18:19:42
#>  9 Henrik Bengtsson                               henrikbengtsson 2009-06-13 02:11:14
#> 10 Gabriela de Queiroz ☁️ 🥑 (fosstodon.org/@kroz) gdequeiroz      2008-09-14 18:55:29
#> # … with 20 more rows
…
We have now the information from those followed by the R Foundation and its followers.
We can retrieve their latest tweets from these users:


```r
tweets_data(R_foundation_fds_data)[, c("created_at", "text")]
#> # A tibble: 30 × 2
#>    created_at                     text                                                            
#>    <chr>                          <chr>                                                           
#>  1 Mon Jan 09 11:13:53 +0000 2023 "Two (independent) sessions on Thursday Jan 9th:\n\n- 10am-11am…
#>  2 Wed Sep 28 15:06:22 +0000 2022 "RT @pdalgd: #rstats 4.2.2 \"Innocent and Trusting\"  scheduled…
#>  3 Tue Nov 29 15:55:04 +0000 2022 "@stevenstrogatz Terry Tao also posted a nice note recently htt…
#>  4 Sat Nov 12 16:06:40 +0000 2022 "RT @HeathrTurnr: Wondering about setting up a data science/ope…
#>  5 Fri Jul 29 05:30:06 +0000 2022 "RT @kidssindwichtig: Wenn du in deiner Arbeitszeit noch nie ei…
#>  6 Fri Apr 16 11:03:21 +0000 2021 "RT @_useRconf: It is a good time to remember some of our keyda…
#>  7 Mon Jan 18 17:36:22 +0000 2021 "Give us a follow at @_useRconf to stay updated on *all* future…
#>  8 Thu Jan 05 12:26:46 +0000 2023 "RT @GdalOrg: GDAL 3.6.2 is released: https://t.co/MxQYuXgrdU"  
#>  9 Wed Jan 11 05:27:35 +0000 2023 "{progressr} 0.13.0 on CRAN. Setting\n\noptions(cli.progress_ha…
#> 10 Tue Jan 10 20:51:48 +0000 2023 "RT @WirelessLife: Developers, learn how to avoid the limits on…
#> # … with 20 more rows
```

## Search users

Search for 1,000 users with the rstats hashtag in their profile bios.

```r
## search for users with #rstats in their profiles
useRs <- search_users("#rstats", n = 100, verbose = FALSE)
useRs[, c("name", "screen_name", "created_at")]
#> # A tibble: 100 × 3
#>    name                         screen_name    created_at         
#>    <chr>                        <chr>          <dttm>             
#>  1 Rstats                       rstatstweet    2018-06-27 05:45:02
#>  2 R for Data Science           rstats4ds      2018-12-18 13:55:25
#>  3 FC rSTATS                    FC_rstats      2018-02-08 21:03:08
#>  4 #RStats Question A Day       data_question  2019-10-21 19:15:24
#>  5 R Tweets                     rstats_tweets  2020-09-17 18:12:09
#>  6 Ramiro Bentes                NbaInRstats    2019-11-05 03:44:32
#>  7 Data Science with R          Rstats4Econ    2012-04-21 04:37:12
#>  8 Baseball with R              BaseballRstats 2013-11-02 16:07:05
#>  9 Will                         steelRstats    2019-07-23 16:48:00
#> 10 LIRR Statistics (Unofficial) LIRRstats      2017-01-25 00:31:55
#> # … with 90 more rows
…
## Get trends

Discover what's currently trending in San Francisco.

```r
world <- get_trends("world")
world
#> # A tibble: 50 × 9
#>    trend           url   promo…¹ query tweet…² place woeid as_of               created_at         
#>    <chr>           <chr> <lgl>   <chr>   <int> <chr> <int> <dttm>              <dttm>             
#>  1 #BecasEdomex    http… NA      %23B…   49048 Worl…     1 2023-01-11 19:31:58 2023-01-10 13:39:07
#>  2 #iHeartAwards   http… NA      %23i…  746169 Worl…     1 2023-01-11 19:31:58 2023-01-10 13:39:07
#>  3 #BestMusicVideo http… NA      %23B…  374249 Worl…     1 2023-01-11 19:31:58 2023-01-10 13:39:07
#>  4 #BestFanArmy    http… NA      %23B…  215723 Worl…     1 2023-01-11 19:31:58 2023-01-10 13:39:07
#>  5 LOVE YOU ALBA   http… NA      %22L…   67091 Worl…     1 2023-01-11 19:31:58 2023-01-10 13:39:07
#>  6 #Louies         http… NA      %23L…   46855 Worl…     1 2023-01-11 19:31:58 2023-01-10 13:39:07
#>  7 Sara Manuela    http… NA      %22S…      NA Worl…     1 2023-01-11 19:31:58 2023-01-10 13:39:07
#>  8 FELiPLAY LEVEL… http… NA      %22F…   17419 Worl…     1 2023-01-11 19:31:58 2023-01-10 13:39:07
#>  9 Naomi Osaka     http… NA      %22N…      NA Worl…     1 2023-01-11 19:31:58 2023-01-10 13:39:07
#> 10 Shakira         http… NA      Shak…  212478 Worl…     1 2023-01-11 19:31:58 2023-01-10 13:39:07
#> # … with 40 more rows, and abbreviated variable names ¹​promoted_content, ²​tweet_volume
```
…
## Rate limits

Twitter sets a limited number of calls to their endpoints for different authentications (check `vignette("auth", "rtweet")` to find which one is better for your use case).
To consult those limits you can use `rate_limt()`


```r
rate_limit()
#> # A tibble: 263 × 5
#>    resource                 limit remaining reset_at            reset  
#>    <chr>                    <int>     <int> <dttm>              <drtn> 
#>  1 /lists/list                 15        15 2023-01-11 20:46:59 15 mins
#>  2 /lists/:id/tweets&GET      900       900 2023-01-11 20:46:59 15 mins
#>  3 /lists/:id/followers&GET   180       180 2023-01-11 20:46:59 15 mins
#>  4 /lists/memberships          75        75 2023-01-11 20:46:59 15 mins
#>  5 /lists/:id&DELETE          300       300 2023-01-11 20:46:59 15 mins
#>  6 /lists/subscriptions        15        15 2023-01-11 20:46:59 15 mins
#>  7 /lists/members             900       900 2023-01-11 20:46:59 15 mins
#>  8 /lists/:id&GET              75        75 2023-01-11 20:46:59 15 mins
#>  9 /lists/subscribers/show     15        15 2023-01-11 20:46:59 15 mins
#> 10 /lists/:id&PUT             300       300 2023-01-11 20:46:59 15 mins
#> # … with 253 more rows
…
