…
You can also reply to a previous tweet, retweet and provide additional information. 

## Get friends

Retrieve a list of all the accounts a **user follows**.

```r
## get user IDs of accounts followed by R Foundation
R_foundation_fds <- get_friends("_R_Foundation")
R_foundation_fds
#> # A tibble: 31 × 2
#>    from_id       to_id              
#>    <chr>         <chr>              
#>  1 _R_Foundation 1448728978370535426
#>  2 _R_Foundation 889777924991307778 
#>  3 _R_Foundation 1300656590         
#>  4 _R_Foundation 1280779280579022848
#>  5 _R_Foundation 1229418786085888001
#>  6 _R_Foundation 1197874989367779328
#>  7 _R_Foundation 1102763906714554368
#>  8 _R_Foundation 1560929287         
#>  9 _R_Foundation 46782674           
#> 10 _R_Foundation 16284661           
#> # … with 21 more rows
```
…
## Get trends

Discover what's currently trending in San Francisco.

```r
world <- get_trends("world")
world
#> # A tibble: 50 × 9
#>    trend        url   promoted_content query tweet_volume place woeid as_of              
#>    <chr>        <chr> <lgl>            <chr>        <int> <chr> <int> <dttm>             
#>  1 Everton      http… NA               Ever…       152361 Worl…     1 2022-05-19 21:59:23
#>  2 #كاس_خادم_ا… http… NA               %23%…        80417 Worl…     1 2022-05-19 21:59:23
#>  3 #الهلال_الف… http… NA               %23%…       209007 Worl…     1 2022-05-19 21:59:23
#>  4 #EVECRY      http… NA               %23E…        26569 Worl…     1 2022-05-19 21:59:23
#>  5 Rihanna      http… NA               Riha…       174426 Worl…     1 2022-05-19 21:59:23
#>  6 Burnley      http… NA               Burn…        35428 Worl…     1 2022-05-19 21:59:23
#>  7 Pulisic      http… NA               Puli…        15096 Worl…     1 2022-05-19 21:59:23
#>  8 #SVGala5     http… NA               %23S…        10884 Worl…     1 2022-05-19 21:59:23
#>  9 Vangelis     http… NA               Vang…        88563 Worl…     1 2022-05-19 21:59:23
#> 10 المعيوف      http… NA               %D8%…           NA Worl…     1 2022-05-19 21:59:23
#> # … with 40 more rows, and 1 more variable: created_at <dttm>
```
…
## Rate limits

Twitter sets a limited number of calls to their endpoints for different authentications (check `vignette("auth", "rtweet")` to find which one is better for your use case).
To consult those limits you can use `rate_limt()`

```r
rate_limit()
#> # A tibble: 262 × 5
#>    resource                 limit remaining reset_at            reset  
#>    <chr>                    <int>     <int> <dttm>              <drtn> 
#>  1 /lists/list                 15        15 2022-05-20 00:14:24 15 mins
#>  2 /lists/:id/tweets&GET      900       900 2022-05-20 00:14:24 15 mins
#>  3 /lists/:id/followers&GET   180       180 2022-05-20 00:14:24 15 mins
#>  4 /lists/memberships          75        75 2022-05-20 00:14:24 15 mins
#>  5 /lists/:id&DELETE          300       300 2022-05-20 00:14:24 15 mins
#>  6 /lists/subscriptions        15        15 2022-05-20 00:14:24 15 mins
#>  7 /lists/members             900       900 2022-05-20 00:14:24 15 mins
#>  8 /lists/:id&GET              75        75 2022-05-20 00:14:24 15 mins
#>  9 /lists/subscribers/show     15        15 2022-05-20 00:14:24 15 mins
#> 10 /lists/:id&PUT             300       300 2022-05-20 00:14:24 15 mins
#> # … with 252 more rows
…
